ChiselProject/test_run_dir/FSM_should_PASS/FSM.vcd
$date
2025-03-14T09:19+0000
$end
$version
0.2
$end
$comment

$end
$timescale 1ns  $end
$scope module FSM $end
 $var wire 1 ! io_muxCtrlSum_1_0 $end
 $var wire 1 " io_muxCtrlSum_1_1 $end
 $var wire 1 # io_muxCtrlSum_5_0 $end
 $var wire 1 $ io_muxCtrlSum_5_1 $end
 $var wire 1 % io_muxCtrlC_4_1 $end
 $var wire 1 & io_muxCtrlC_0_1 $end
 $var wire 1 ' io_sigDone $end
 $var wire 1 ( io_muxCtrlC_4_0 $end
 $var wire 32 ) regDelayB_0 $end
 $var wire 32 * io_addrWriteC_0 $end
 $var wire 1 + io_muxCtrlC_0_0 $end
 $var wire 1 , io_sigStart $end
 $var wire 32 - io_addrReadA_6 $end
 $var wire 32 . io_addrReadA_7 $end
 $var wire 32 / io_addrReadA_0 $end
 $var wire 32 0 io_addrReadA_1 $end
 $var wire 1 1 reset $end
 $var wire 32 2 io_addrReadA_4 $end
 $var wire 32 3 io_addrReadA_5 $end
 $var wire 32 4 io_addrReadA_2 $end
 $var wire 32 5 io_addrReadA_3 $end
 $var wire 1 6 io_muxCtrlSum_0_0 $end
 $var wire 1 7 io_muxCtrlSum_0_1 $end
 $var wire 16 8 regOffK_1H $end
 $var wire 1 9 io_muxCtrlSum_4_0 $end
 $var wire 1 : io_muxCtrlSum_4_1 $end
 $var wire 1 ; io_muxCtrlC_5_1 $end
 $var wire 1 < io_muxCtrlC_5_0 $end
 $var wire 1 = io_muxCtrlC_1_1 $end
 $var wire 1 > io_muxCtrlC_1_0 $end
 $var wire 1 ? io_muxCtrlSum_3_0 $end
 $var wire 1 @ io_muxCtrlSum_3_1 $end
 $var wire 1 A io_muxCtrlSum_7_0 $end
 $var wire 1 B io_muxCtrlSum_7_1 $end
 $var wire 1 C io_muxCtrlC_6_0 $end
 $var wire 1 D io_muxCtrlC_6_1 $end
 $var wire 1 E io_muxCtrlC_2_0 $end
 $var wire 1 F io_muxCtrlC_2_1 $end
 $var wire 1 G clock $end
 $var wire 32 H io_addrReadC_0 $end
 $var wire 32 I io_addrReadC_1 $end
 $var wire 4 J regOffK $end
 $var wire 1 K regOffM $end
 $var wire 1 L regOffN $end
 $var wire 8 M regMuxCrtl_0 $end
 $var wire 1 N io_muxCtrlSum_2_0 $end
 $var wire 1 O io_muxCtrlSum_2_1 $end
 $var wire 32 P regDelayA_6 $end
 $var wire 32 Q regDelayA_5 $end
 $var wire 1 R io_muxCtrlSum_6_0 $end
 $var wire 1 S io_muxCtrlSum_6_1 $end
 $var wire 1 T io_muxCtrlC_7_1 $end
 $var wire 1 U io_muxCtrlC_7_0 $end
 $var wire 32 V regDelayA_0 $end
 $var wire 1 W io_muxCtrlC_3_1 $end
 $var wire 1 X io_muxCtrlC_3_0 $end
 $var wire 32 Y regDelayA_2 $end
 $var wire 32 Z regDelayA_1 $end
 $var wire 32 [ regDelayA_4 $end
 $var wire 32 \ regDelayA_3 $end
 $var wire 32 ] wireAddrReadB $end
 $var wire 32 ^ io_addrWriteC_1 $end
 $var wire 32 _ wireAddrReadA $end
 $var wire 32 ` io_addrReadB_0 $end
 $var wire 32 a io_addrReadB_1 $end
$upscope $end
$enddefinitions $end
$dumpvars
01
b00000000000000000000000000000000 *
b00000000000000000000000000000000 -
06
b00000000000000000000000000000000 )
07
09
0:
0;
0<
0=
0>
0?
0@
0A
0B
0C
0D
0E
0F
0G
b00000000000000000000000000000000 3
b0000000000000000 8
b00000000000000000000000000000000 2
b00000000000000000000000000000000 5
0K
b00000000000000000000000000000000 4
0L
b00000000000000000000000000000000 /
b00000000000000000000000000000000 .
0N
0O
b00000000000000000000000000000000 0
0R
b00000000 M
0S
0T
0U
0W
0X
b0000 J
b00000000000000000000000000000000 _
b00000000000000000000000000000000 ^
b00000000000000000000000000000000 a
b00000000000000000000000000000000 `
b00000000000000000000000000000000 I
b00000000000000000000000000000000 H
b00000000000000000000000000000000 [
0!
b00000000000000000000000000000000 Z
0"
b00000000000000000000000000000000 ]
0#
b00000000000000000000000000000000 \
0$
0%
b00000000000000000000000000000000 V
0&
b00000000000000000000000000000000 Y
0'
0(
0+
0,
b00000000000000000000000000000000 Q
b00000000000000000000000000000000 P
$end
#0
11
#1
16
1'
1G
b0000000000000001 8
1+
#6
01
0G
#11
b00000000000000000000000000000001 `
1!
1&
0'
1G
b0001 J
0+
b00000001 M
b00000000000000000000000000000001 /
06
17
b0000000000000010 8
b00000000000000000000000000000001 ]
1>
b00000000000000000000000000000001 _
#16
0G
#21
b00000000000000000000000000000010 `
0!
b00000000000000000000000000000001 a
1"
1E
0&
1G
b00000000000000000000000000000001 )
b0010 J
b00000010 M
1N
b00000000000000000000000000000010 /
b00000000000000000000000000000001 0
b00000000000000000000000000000001 V
07
b0000000000000100 8
1=
b00000000000000000000000000000010 ]
0>
b00000000000000000000000000000010 _
#26
0G
#31
b00000000000000000000000000000011 `
b00000000000000000000000000000010 a
0"
0E
1F
1G
b00000000000000000000000000000010 )
b0011 J
b00000100 M
0N
b00000000000000000000000000000011 /
1O
b00000000000000000000000000000010 0
b00000000000000000000000000000001 4
b00000000000000000000000000000010 V
b0000000000001000 8
1X
b00000000000000000000000000000001 Z
0=
b00000000000000000000000000000011 ]
1?
b00000000000000000000000000000011 _
#36
0G
#41
1@
0F
1G
b0100 J
b00001000 M
0O
b00000000000000000000000000000011 V
1W
0X
b00000000000000000000000000000001 Y
b00000000000000000000000000000010 Z
b00000000000000000000000000000100 ]
b00000000000000000000000000000100 _
b00000000000000000000000000000100 `
b00000000000000000000000000000011 a
1(
b00000000000000000000000000000011 )
b00000000000000000000000000000100 /
b00000000000000000000000000000011 0
b00000000000000000000000000000010 4
b00000000000000000000000000000001 5
b0000000000010000 8
19
0?
#46
0G
#51
0@
1G
b0101 J
b00010000 M
b00000000000000000000000000000100 V
0W
b00000000000000000000000000000010 Y
b00000000000000000000000000000011 Z
b00000000000000000000000000000001 \
b00000000000000000000000000000101 ]
b00000000000000000000000000000101 _
b00000000000000000000000000000101 `
b00000000000000000000000000000100 a
1#
1%
0(
b00000000000000000000000000000100 )
b00000000000000000000000000000101 /
b00000000000000000000000000000100 0
b00000000000000000000000000000001 2
b00000000000000000000000000000011 4
b00000000000000000000000000000010 5
b0000000000100000 8
09
1:
1<
#56
0G
1,
#61
1G
b0000 J
b00100000 M
b00000000000000000000000000000101 V
b00000000000000000000000000000011 Y
b00000000000000000000000000000100 Z
b00000000000000000000000000000001 [
b00000000000000000000000000000010 \
b00000000000000000000000000000000 ]
b00000000000000000000000000000000 _
b00000000000000000000000000000000 `
b00000000000000000000000000000101 a
0#
1$
0%
b00000000000000000000000000000101 )
1+
b00000000000000000000000000000000 /
b00000000000000000000000000000101 0
b00000000000000000000000000000010 2
b00000000000000000000000000000001 3
b00000000000000000000000000000100 4
b00000000000000000000000000000011 5
16
b0000000000000001 8
0:
1;
0<
#66
1'
0G
0,
#71
1G
b0001 J
b00000001 M
b00000000000000000000000000000001 Q
b00000000000000000000000000000000 V
b00000000000000000000000000000100 Y
b00000000000000000000000000000101 Z
b00000000000000000000000000000010 [
b00000000000000000000000000000011 \
b00000000000000000000000000000001 ]
b00000000000000000000000000000001 _
b00000000000000000000000000000001 `
1!
b00000000000000000000000000000000 a
0$
1&
0'
b00000000000000000000000000000000 )
0+
b00000000000000000000000000000001 -
b00000000000000000000000000000001 /
b00000000000000000000000000000000 0
b00000000000000000000000000000011 2
b00000000000000000000000000000010 3
b00000000000000000000000000000101 4
b00000000000000000000000000000100 5
06
17
b0000000000000010 8
0;
1>
#76
0G
#81
1E
1G
b0010 J
b00000010 M
1N
b00000000000000000000000000000001 P
b00000000000000000000000000000010 Q
b00000000000000000000000000000001 V
b00000000000000000000000000000101 Y
b00000000000000000000000000000000 Z
b00000000000000000000000000000011 [
b00000000000000000000000000000100 \
b00000000000000000000000000000010 ]
b00000000000000000000000000000010 _
b00000000000000000000000000000010 `
0!
b00000000000000000000000000000001 a
1"
0&
b00000000000000000000000000000001 )
b00000000000000000000000000000010 -
b00000000000000000000000000000001 .
b00000000000000000000000000000010 /
b00000000000000000000000000000001 0
b00000000000000000000000000000100 2
b00000000000000000000000000000011 3
b00000000000000000000000000000000 4
b00000000000000000000000000000101 5
07
b0000000000000100 8
1=
0>
#86
0G
#91
0E
1F
1G
b0011 J
b00000100 M
0N
1O
b00000000000000000000000000000010 P
b00000000000000000000000000000011 Q
b00000000000000000000000000000010 V
1X
b00000000000000000000000000000000 Y
b00000000000000000000000000000001 Z
b00000000000000000000000000000100 [
b00000000000000000000000000000101 \
b00000000000000000000000000000011 ]
b00000000000000000000000000000011 _
b00000000000000000000000000000011 `
b00000000000000000000000000000010 a
0"
b00000000000000000000000000000010 )
b00000000000000000000000000000011 -
b00000000000000000000000000000010 .
b00000000000000000000000000000011 /
b00000000000000000000000000000010 0
b00000000000000000000000000000101 2
b00000000000000000000000000000100 3
b00000000000000000000000000000001 4
b00000000000000000000000000000000 5
b0000000000001000 8
0=
1?
#96
0G
#101
1@
0F
1G
b0100 J
b00001000 M
0O
b00000000000000000000000000000011 P
b00000000000000000000000000000100 Q
b00000000000000000000000000000011 V
1W
0X
b00000000000000000000000000000001 Y
b00000000000000000000000000000010 Z
b00000000000000000000000000000101 [
b00000000000000000000000000000000 \
b00000000000000000000000000000100 ]
b00000000000000000000000000000100 _
b00000000000000000000000000000100 `
b00000000000000000000000000000011 a
1(
b00000000000000000000000000000011 )
b00000000000000000000000000000100 -
b00000000000000000000000000000011 .
b00000000000000000000000000000100 /
b00000000000000000000000000000011 0
b00000000000000000000000000000000 2
b00000000000000000000000000000101 3
b00000000000000000000000000000010 4
b00000000000000000000000000000001 5
b0000000000010000 8
19
0?
#106
0G
#111
0@
1G
b0101 J
b00010000 M
b00000000000000000000000000000100 P
b00000000000000000000000000000101 Q
b00000000000000000000000000000100 V
0W
b00000000000000000000000000000010 Y
b00000000000000000000000000000011 Z
b00000000000000000000000000000000 [
b00000000000000000000000000000001 \
b00000000000000000000000000000101 ]
b00000000000000000000000000000101 _
b00000000000000000000000000000101 `
b00000000000000000000000000000100 a
1#
1%
0(
b00000000000000000000000000000100 )
b00000000000000000000000000000101 -
b00000000000000000000000000000100 .
b00000000000000000000000000000101 /
b00000000000000000000000000000100 0
b00000000000000000000000000000001 2
b00000000000000000000000000000000 3
b00000000000000000000000000000011 4
b00000000000000000000000000000010 5
b0000000000100000 8
09
1:
1<
#116
0G
#121
1C
1G
b0110 J
b00100000 M
b00000000000000000000000000000101 P
b00000000000000000000000000000000 Q
1R
b00000000000000000000000000000101 V
b00000000000000000000000000000011 Y
b00000000000000000000000000000100 Z
b00000000000000000000000000000001 [
b00000000000000000000000000000010 \
b00000000000000000000000000000110 ]
b00000000000000000000000000000110 _
b00000000000000000000000000000110 `
b00000000000000000000000000000101 a
0#
1$
0%
b00000000000000000000000000000101 )
b00000000000000000000000000000000 -
b00000000000000000000000000000101 .
b00000000000000000000000000000110 /
b00000000000000000000000000000101 0
b00000000000000000000000000000010 2
b00000000000000000000000000000001 3
b00000000000000000000000000000100 4
b00000000000000000000000000000011 5
b0000000001000000 8
0:
1;
0<
#126
0G
#131
1A
0C
1D
1G
b0111 J
b01000000 M
b00000000000000000000000000000000 P
b00000000000000000000000000000001 Q
0R
1S
1U
b00000000000000000000000000000110 V
b00000000000000000000000000000100 Y
b00000000000000000000000000000101 Z
b00000000000000000000000000000010 [
b00000000000000000000000000000011 \
b00000000000000000000000000000111 ]
b00000000000000000000000000000111 _
b00000000000000000000000000000111 `
b00000000000000000000000000000110 a
0$
b00000000000000000000000000000110 )
b00000000000000000000000000000001 -
b00000000000000000000000000000000 .
b00000000000000000000000000000111 /
b00000000000000000000000000000110 0
b00000000000000000000000000000011 2
b00000000000000000000000000000010 3
b00000000000000000000000000000101 4
b00000000000000000000000000000100 5
b0000000010000000 8
0;
#136
0G
#141
0A
1B
0D
1G
b1000 J
b10000000 M
b00000000000000000000000000000001 P
b00000000000000000000000000000010 Q
0S
1T
0U
b00000000000000000000000000000111 V
b00000000000000000000000000000101 Y
b00000000000000000000000000000110 Z
b00000000000000000000000000000011 [
b00000000000000000000000000000100 \
b00000000000000000000000000001000 ]
b00000000000000000000000000001000 _
b00000000000000000000000000001000 `
b00000000000000000000000000000111 a
b00000000000000000000000000000111 )
b00000000000000000000000000000010 -
b00000000000000000000000000000001 .
b00000000000000000000000000001000 /
b00000000000000000000000000000111 0
b00000000000000000000000000000100 2
b00000000000000000000000000000011 3
b00000000000000000000000000000110 4
b00000000000000000000000000000101 5
b0000000100000000 8
#146
0G
#151
0B
1G
b1001 J
b00000000 M
b00000000000000000000000000000010 P
b00000000000000000000000000000011 Q
0T
b00000000000000000000000000001000 V
b00000000000000000000000000000110 Y
b00000000000000000000000000000111 Z
b00000000000000000000000000000100 [
b00000000000000000000000000000101 \
b00000000000000000000000000001001 ]
b00000000000000000000000000001001 _
b00000000000000000000000000001001 `
b00000000000000000000000000001000 a
b00000000000000000000000000001000 )
b00000000000000000000000000000011 -
b00000000000000000000000000000010 .
b00000000000000000000000000001001 /
b00000000000000000000000000001000 0
b00000000000000000000000000000101 2
b00000000000000000000000000000100 3
b00000000000000000000000000000111 4
b00000000000000000000000000000110 5
b0000001000000000 8
#156
0G
#161
b00000000000000000000000000001010 `
b00000000000000000000000000001001 a
1G
b00000000000000000000000000001001 )
b1010 J
b00000000000000000000000000000100 -
b00000000000000000000000000000011 .
b00000000000000000000000000001010 /
b00000000000000000000000000001001 0
b00000000000000000000000000000011 P
b00000000000000000000000000000100 Q
b00000000000000000000000000000110 2
b00000000000000000000000000000101 3
b00000000000000000000000000001000 4
b00000000000000000000000000000111 5
b00000000000000000000000000001001 V
b0000010000000000 8
b00000000000000000000000000000111 Y
b00000000000000000000000000001000 Z
b00000000000000000000000000000101 [
b00000000000000000000000000000110 \
b00000000000000000000000000001010 ]
b00000000000000000000000000001010 _
#166
0G
#171
b00000000000000000000000000001011 `
b00000000000000000000000000001010 a
1G
b00000000000000000000000000001010 )
b1011 J
b00000000000000000000000000000101 -
b00000000000000000000000000000100 .
b00000000000000000000000000001011 /
b00000000000000000000000000001010 0
b00000000000000000000000000000100 P
b00000000000000000000000000000101 Q
b00000000000000000000000000000111 2
b00000000000000000000000000000110 3
b00000000000000000000000000001001 4
b00000000000000000000000000001000 5
b00000000000000000000000000001010 V
b0000100000000000 8
b00000000000000000000000000001000 Y
b00000000000000000000000000001001 Z
b00000000000000000000000000000110 [
b00000000000000000000000000000111 \
b00000000000000000000000000001011 ]
b00000000000000000000000000001011 _
#176
0G
#181
b00000000000000000000000000001100 `
b00000000000000000000000000001011 a
1G
b00000000000000000000000000001011 )
b1100 J
b00000000000000000000000000000110 -
b00000000000000000000000000000101 .
b00000000000000000000000000001100 /
b00000000000000000000000000001011 0
b00000000000000000000000000000101 P
b00000000000000000000000000000110 Q
b00000000000000000000000000001000 2
b00000000000000000000000000000111 3
b00000000000000000000000000001010 4
b00000000000000000000000000001001 5
b00000000000000000000000000001011 V
b0001000000000000 8
b00000000000000000000000000001001 Y
b00000000000000000000000000001010 Z
b00000000000000000000000000000111 [
b00000000000000000000000000001000 \
b00000000000000000000000000001100 ]
b00000000000000000000000000001100 _
#186
0G
#191
b00000000000000000000000000001101 `
b00000000000000000000000000001100 a
1G
b00000000000000000000000000001100 )
b1101 J
b00000000000000000000000000000111 -
b00000000000000000000000000000110 .
b00000000000000000000000000001101 /
b00000000000000000000000000001100 0
b00000000000000000000000000000110 P
b00000000000000000000000000000111 Q
b00000000000000000000000000001001 2
b00000000000000000000000000001000 3
b00000000000000000000000000001011 4
b00000000000000000000000000001010 5
b00000000000000000000000000001100 V
b0010000000000000 8
b00000000000000000000000000001010 Y
b00000000000000000000000000001011 Z
b00000000000000000000000000001000 [
b00000000000000000000000000001001 \
b00000000000000000000000000001101 ]
b00000000000000000000000000001101 _
#196
0G
#201
b00000000000000000000000000001110 `
b00000000000000000000000000001101 a
1G
b00000000000000000000000000001101 )
b1110 J
b00000000000000000000000000001000 -
b00000000000000000000000000000111 .
b00000000000000000000000000001110 /
b00000000000000000000000000001101 0
b00000000000000000000000000000111 P
b00000000000000000000000000001000 Q
b00000000000000000000000000001010 2
b00000000000000000000000000001001 3
b00000000000000000000000000001100 4
b00000000000000000000000000001011 5
b00000000000000000000000000001101 V
b0100000000000000 8
b00000000000000000000000000001011 Y
b00000000000000000000000000001100 Z
b00000000000000000000000000001001 [
b00000000000000000000000000001010 \
b00000000000000000000000000001110 ]
b00000000000000000000000000001110 _
#206
0G
#211
b00000000000000000000000000001111 `
b00000000000000000000000000001110 a
1G
b00000000000000000000000000001110 )
b1111 J
b00000000000000000000000000001001 -
b00000000000000000000000000001000 .
b00000000000000000000000000001111 /
b00000000000000000000000000001110 0
b00000000000000000000000000001000 P
b00000000000000000000000000001001 Q
b00000000000000000000000000001011 2
b00000000000000000000000000001010 3
b00000000000000000000000000001101 4
b00000000000000000000000000001100 5
b00000000000000000000000000001110 V
b1000000000000000 8
b00000000000000000000000000001100 Y
b00000000000000000000000000001101 Z
b00000000000000000000000000001010 [
b00000000000000000000000000001011 \
b00000000000000000000000000001111 ]
b00000000000000000000000000001111 _
#216
0G
#221
1G
b0000 J
1L
b00000000000000000000000000001001 P
b00000000000000000000000000001010 Q
b00000000000000000000000000001111 V
b00000000000000000000000000001101 Y
b00000000000000000000000000001110 Z
b00000000000000000000000000001011 [
b00000000000000000000000000001100 \
b00000000000000000000000000010000 ]
b00000000000000000000000000000000 _
b00000000000000000000000000010000 `
b00000000000000000000000000001111 a
b00000000000000000000000000001111 )
1+
b00000000000000000000000000001010 -
b00000000000000000000000000001001 .
b00000000000000000000000000000000 /
b00000000000000000000000000001111 0
b00000000000000000000000000001100 2
b00000000000000000000000000001011 3
b00000000000000000000000000001110 4
b00000000000000000000000000001101 5
16
b0000000000000001 8
#226
0G
#231
1G
b0001 J
b00000001 M
b00000000000000000000000000001010 P
b00000000000000000000000000001011 Q
b00000000000000000000000000000000 V
b00000000000000000000000000001110 Y
b00000000000000000000000000001111 Z
b00000000000000000000000000001100 [
b00000000000000000000000000001101 \
b00000000000000000000000000010001 ]
b00000000000000000000000000000001 _
b00000000000000000000000000010001 `
1!
b00000000000000000000000000010000 a
1&
b00000000000000000000000000010000 )
0+
b00000000000000000000000000001011 -
b00000000000000000000000000001010 .
b00000000000000000000000000000001 /
b00000000000000000000000000000000 0
b00000000000000000000000000001101 2
b00000000000000000000000000001100 3
b00000000000000000000000000001111 4
b00000000000000000000000000001110 5
06
17
b0000000000000010 8
1>
#236
0G
#241
1E
1G
b0010 J
b00000010 M
1N
b00000000000000000000000000001011 P
b00000000000000000000000000001100 Q
b00000000000000000000000000000001 V
b00000000000000000000000000001111 Y
b00000000000000000000000000000000 Z
b00000000000000000000000000001101 [
b00000000000000000000000000001110 \
b00000000000000000000000000010010 ]
b00000000000000000000000000000010 _
b00000000000000000000000000010010 `
0!
b00000000000000000000000000010001 a
1"
0&
b00000000000000000000000000010001 )
b00000000000000000000000000001100 -
b00000000000000000000000000001011 .
b00000000000000000000000000000010 /
b00000000000000000000000000000001 0
b00000000000000000000000000001110 2
b00000000000000000000000000001101 3
b00000000000000000000000000000000 4
b00000000000000000000000000001111 5
07
b0000000000000100 8
1=
0>
#246
0G
#251
0E
1F
1G
b0011 J
b00000100 M
0N
1O
b00000000000000000000000000001100 P
b00000000000000000000000000001101 Q
b00000000000000000000000000000010 V
1X
b00000000000000000000000000000000 Y
b00000000000000000000000000000001 Z
b00000000000000000000000000001110 [
b00000000000000000000000000001111 \
b00000000000000000000000000010011 ]
b00000000000000000000000000000011 _
b00000000000000000000000000010011 `
b00000000000000000000000000010010 a
0"
b00000000000000000000000000010010 )
b00000000000000000000000000001101 -
b00000000000000000000000000001100 .
b00000000000000000000000000000011 /
b00000000000000000000000000000010 0
b00000000000000000000000000001111 2
b00000000000000000000000000001110 3
b00000000000000000000000000000001 4
b00000000000000000000000000000000 5
b0000000000001000 8
0=
1?
#256
0G
#261
1@
0F
1G
b0100 J
b00001000 M
0O
b00000000000000000000000000001101 P
b00000000000000000000000000001110 Q
b00000000000000000000000000000011 V
1W
0X
b00000000000000000000000000000001 Y
b00000000000000000000000000000010 Z
b00000000000000000000000000001111 [
b00000000000000000000000000000000 \
b00000000000000000000000000010100 ]
b00000000000000000000000000000100 _
b00000000000000000000000000010100 `
b00000000000000000000000000010011 a
1(
b00000000000000000000000000010011 )
b00000000000000000000000000001110 -
b00000000000000000000000000001101 .
b00000000000000000000000000000100 /
b00000000000000000000000000000011 0
b00000000000000000000000000000000 2
b00000000000000000000000000001111 3
b00000000000000000000000000000010 4
b00000000000000000000000000000001 5
b0000000000010000 8
19
0?
#266
0G
#271
0@
1G
b0101 J
b00010000 M
b00000000000000000000000000001110 P
b00000000000000000000000000001111 Q
b00000000000000000000000000000100 V
0W
b00000000000000000000000000000010 Y
b00000000000000000000000000000011 Z
b00000000000000000000000000000000 [
b00000000000000000000000000000001 \
b00000000000000000000000000010101 ]
b00000000000000000000000000000101 _
b00000000000000000000000000010101 `
b00000000000000000000000000010100 a
1#
1%
0(
b00000000000000000000000000010100 )
b00000000000000000000000000001111 -
b00000000000000000000000000001110 .
b00000000000000000000000000000101 /
b00000000000000000000000000000100 0
b00000000000000000000000000000001 2
b00000000000000000000000000000000 3
b00000000000000000000000000000011 4
b00000000000000000000000000000010 5
b0000000000100000 8
09
1:
1<
#276
0G
#281
1C
1G
b0110 J
b00100000 M
b00000000000000000000000000001111 P
b00000000000000000000000000000000 Q
1R
b00000000000000000000000000000101 V
b00000000000000000000000000000011 Y
b00000000000000000000000000000100 Z
b00000000000000000000000000000001 [
b00000000000000000000000000000010 \
b00000000000000000000000000010110 ]
b00000000000000000000000000000110 _
b00000000000000000000000000010110 `
b00000000000000000000000000010101 a
0#
1$
0%
b00000000000000000000000000010101 )
b00000000000000000000000000000000 -
b00000000000000000000000000001111 .
b00000000000000000000000000000110 /
b00000000000000000000000000000101 0
b00000000000000000000000000000010 2
b00000000000000000000000000000001 3
b00000000000000000000000000000100 4
b00000000000000000000000000000011 5
b0000000001000000 8
0:
1;
0<
#286
0G
#291
1A
0C
1D
1G
b0111 J
b01000000 M
b00000000000000000000000000000000 P
b00000000000000000000000000000001 Q
0R
1S
1U
b00000000000000000000000000000110 V
b00000000000000000000000000000100 Y
b00000000000000000000000000000101 Z
b00000000000000000000000000000010 [
b00000000000000000000000000000011 \
b00000000000000000000000000010111 ]
b00000000000000000000000000000111 _
b00000000000000000000000000010111 `
b00000000000000000000000000010110 a
0$
b00000000000000000000000000010110 )
b00000000000000000000000000000001 -
b00000000000000000000000000000000 .
b00000000000000000000000000000111 /
b00000000000000000000000000000110 0
b00000000000000000000000000000011 2
b00000000000000000000000000000010 3
b00000000000000000000000000000101 4
b00000000000000000000000000000100 5
b0000000010000000 8
0;
#296
0G
#301
0A
1B
0D
1G
b1000 J
b10000000 M
b00000000000000000000000000000001 P
b00000000000000000000000000000010 Q
0S
1T
0U
b00000000000000000000000000000111 V
b00000000000000000000000000000101 Y
b00000000000000000000000000000110 Z
b00000000000000000000000000000011 [
b00000000000000000000000000000100 \
b00000000000000000000000000011000 ]
b00000000000000000000000000001000 _
b00000000000000000000000000011000 `
b00000000000000000000000000010111 a
b00000000000000000000000000010111 )
b00000000000000000000000000000010 -
b00000000000000000000000000000001 .
b00000000000000000000000000001000 /
b00000000000000000000000000000111 0
b00000000000000000000000000000100 2
b00000000000000000000000000000011 3
b00000000000000000000000000000110 4
b00000000000000000000000000000101 5
b0000000100000000 8
#306
0G
#311
0B
1G
b1001 J
b00000000 M
b00000000000000000000000000000010 P
b00000000000000000000000000000011 Q
0T
b00000000000000000000000000001000 V
b00000000000000000000000000000110 Y
b00000000000000000000000000000111 Z
b00000000000000000000000000000100 [
b00000000000000000000000000000101 \
b00000000000000000000000000011001 ]
b00000000000000000000000000001001 _
b00000000000000000000000000011001 `
b00000000000000000000000000011000 a
b00000000000000000000000000011000 )
b00000000000000000000000000000011 -
b00000000000000000000000000000010 .
b00000000000000000000000000001001 /
b00000000000000000000000000001000 0
b00000000000000000000000000000101 2
b00000000000000000000000000000100 3
b00000000000000000000000000000111 4
b00000000000000000000000000000110 5
b0000001000000000 8
#316
0G
#321
b00000000000000000000000000011010 `
b00000000000000000000000000011001 a
1G
b00000000000000000000000000011001 )
b1010 J
b00000000000000000000000000000100 -
b00000000000000000000000000000011 .
b00000000000000000000000000001010 /
b00000000000000000000000000001001 0
b00000000000000000000000000000011 P
b00000000000000000000000000000100 Q
b00000000000000000000000000000110 2
b00000000000000000000000000000101 3
b00000000000000000000000000001000 4
b00000000000000000000000000000111 5
b00000000000000000000000000001001 V
b0000010000000000 8
b00000000000000000000000000000111 Y
b00000000000000000000000000001000 Z
b00000000000000000000000000000101 [
b00000000000000000000000000000110 \
b00000000000000000000000000011010 ]
b00000000000000000000000000001010 _
#326
0G
#331
b00000000000000000000000000011011 `
b00000000000000000000000000011010 a
1G
b00000000000000000000000000011010 )
b1011 J
b00000000000000000000000000000101 -
b00000000000000000000000000000100 .
b00000000000000000000000000001011 /
b00000000000000000000000000001010 0
b00000000000000000000000000000100 P
b00000000000000000000000000000101 Q
b00000000000000000000000000000111 2
b00000000000000000000000000000110 3
b00000000000000000000000000001001 4
b00000000000000000000000000001000 5
b00000000000000000000000000001010 V
b0000100000000000 8
b00000000000000000000000000001000 Y
b00000000000000000000000000001001 Z
b00000000000000000000000000000110 [
b00000000000000000000000000000111 \
b00000000000000000000000000011011 ]
b00000000000000000000000000001011 _
#336
0G
#341
b00000000000000000000000000011100 `
b00000000000000000000000000011011 a
1G
b00000000000000000000000000011011 )
b1100 J
b00000000000000000000000000000110 -
b00000000000000000000000000000101 .
b00000000000000000000000000001100 /
b00000000000000000000000000001011 0
b00000000000000000000000000000101 P
b00000000000000000000000000000110 Q
b00000000000000000000000000001000 2
b00000000000000000000000000000111 3
b00000000000000000000000000001010 4
b00000000000000000000000000001001 5
b00000000000000000000000000001011 V
b0001000000000000 8
b00000000000000000000000000001001 Y
b00000000000000000000000000001010 Z
b00000000000000000000000000000111 [
b00000000000000000000000000001000 \
b00000000000000000000000000011100 ]
b00000000000000000000000000001100 _
#346
0G
#351
b00000000000000000000000000011101 `
b00000000000000000000000000011100 a
1G
b00000000000000000000000000011100 )
b1101 J
b00000000000000000000000000000111 -
b00000000000000000000000000000110 .
b00000000000000000000000000001101 /
b00000000000000000000000000001100 0
b00000000000000000000000000000110 P
b00000000000000000000000000000111 Q
b00000000000000000000000000001001 2
b00000000000000000000000000001000 3
b00000000000000000000000000001011 4
b00000000000000000000000000001010 5
b00000000000000000000000000001100 V
b0010000000000000 8
b00000000000000000000000000001010 Y
b00000000000000000000000000001011 Z
b00000000000000000000000000001000 [
b00000000000000000000000000001001 \
b00000000000000000000000000011101 ]
b00000000000000000000000000001101 _
#356
0G
#361
b00000000000000000000000000011110 `
b00000000000000000000000000011101 a
1G
b00000000000000000000000000011101 )
b1110 J
b00000000000000000000000000001000 -
b00000000000000000000000000000111 .
b00000000000000000000000000001110 /
b00000000000000000000000000001101 0
b00000000000000000000000000000111 P
b00000000000000000000000000001000 Q
b00000000000000000000000000001010 2
b00000000000000000000000000001001 3
b00000000000000000000000000001100 4
b00000000000000000000000000001011 5
b00000000000000000000000000001101 V
b0100000000000000 8
b00000000000000000000000000001011 Y
b00000000000000000000000000001100 Z
b00000000000000000000000000001001 [
b00000000000000000000000000001010 \
b00000000000000000000000000011110 ]
b00000000000000000000000000001110 _
#366
0G
#371
b00000000000000000000000000011111 `
b00000000000000000000000000011110 a
1G
b00000000000000000000000000011110 )
b1111 J
b00000000000000000000000000001001 -
b00000000000000000000000000001000 .
b00000000000000000000000000001111 /
b00000000000000000000000000001110 0
b00000000000000000000000000001000 P
b00000000000000000000000000001001 Q
b00000000000000000000000000001011 2
b00000000000000000000000000001010 3
b00000000000000000000000000001101 4
b00000000000000000000000000001100 5
b00000000000000000000000000001110 V
b1000000000000000 8
b00000000000000000000000000001100 Y
b00000000000000000000000000001101 Z
b00000000000000000000000000001010 [
b00000000000000000000000000001011 \
b00000000000000000000000000011111 ]
b00000000000000000000000000001111 _
#376
0G
#381
1G
b0000 J
1K
0L
b00000000000000000000000000001001 P
b00000000000000000000000000001010 Q
b00000000000000000000000000001111 V
b00000000000000000000000000001101 Y
b00000000000000000000000000001110 Z
b00000000000000000000000000001011 [
b00000000000000000000000000001100 \
b00000000000000000000000000000000 ]
b00000000000000000000000000010000 _
b00000000000000000000000000000000 `
b00000000000000000000000000011111 a
b00000000000000000000000000011111 )
1+
b00000000000000000000000000001010 -
b00000000000000000000000000001001 .
b00000000000000000000000000010000 /
b00000000000000000000000000001111 0
b00000000000000000000000000001100 2
b00000000000000000000000000001011 3
b00000000000000000000000000001110 4
b00000000000000000000000000001101 5
16
b0000000000000001 8
#386
0G
#391
1G
b0001 J
b00000001 M
b00000000000000000000000000001010 P
b00000000000000000000000000001011 Q
b00000000000000000000000000010000 V
b00000000000000000000000000001110 Y
b00000000000000000000000000001111 Z
b00000000000000000000000000001100 [
b00000000000000000000000000001101 \
b00000000000000000000000000000001 ]
b00000000000000000000000000010001 _
b00000000000000000000000000000001 `
1!
b00000000000000000000000000000000 a
1&
b00000000000000000000000000000000 )
0+
b00000000000000000000000000001011 -
b00000000000000000000000000001010 .
b00000000000000000000000000010001 /
b00000000000000000000000000010000 0
b00000000000000000000000000001101 2
b00000000000000000000000000001100 3
b00000000000000000000000000001111 4
b00000000000000000000000000001110 5
06
17
b0000000000000010 8
1>
#396
0G
